state={
	id=1084
	name="STATE_1084"
	
	history={
		owner = AUS
		victory_points = {
			6647 2
		}
		victory_points = {
			9595 1
		}
		buildings = {
			infrastructure = 4
			industrial_complex = 1

		}
		add_core_of = AUS

	}
	
	provinces={
		3627 6647 9595 11577 
	}
	manpower=806192
	buildings_max_level_factor=1.000
	state_category=rural
}
