
state={
	id=1086
	name="STATE_1086"

	history={
		owner = AUS
		victory_points = {
		    9588 2
		}
		victory_points = {
		    606 1
		}
		buildings = {
			infrastructure = 4

		}
		add_core_of = AUS
	}

	provinces={
		606 953 982 6619 6983 9588 9591 11572 11574 11741 11845 
	}
	manpower=1218107
	buildings_max_level_factor=1.000
	state_category=rural
}
