state={
	id=1106
	name="STATE_1106"
	
	history={
		owner = AUS
		victory_points = {
			13634 2
		}
		buildings = {
			infrastructure = 5

		}
		add_core_of = AUS

	}
	
	provinces={
		13634 
	}
	manpower=115163
	buildings_max_level_factor=1.000
	state_category=enclave
}
