
state={
	id=71
	name="STATE_71"

	history={
		owner = AUS
		victory_points = {
			3581 2
		}
		buildings = {
			infrastructure = 4
			industrial_complex = 2

		}
		add_core_of = AUS

	}

	provinces={
		3550 3581 6586 6604 
	}
	manpower=1197800
	buildings_max_level_factor=1.000
	state_category=rural
}
