
state={
	id=91
	name="STATE_91"
	resources={
		oil=6.000
		steel=8.000
	}

	history={
		owner = AUS
		victory_points = {
			11479 5 
		}
		buildings = {
			infrastructure = 6
			industrial_complex = 2
			air_base = 5

		}
		add_core_of = AUS
	}

	provinces={
		536 9468 9558 11479 
	}
	manpower=3227800
	buildings_max_level_factor=1.000
	state_category=city
}
